[
    {
        "arguments": [
            "gcc",
            "-c",
            "-Wp,-MD,/home/cocoa/bullshit/.main.mod.o.d",
            "-nostdinc",
            "-isystem",
            "/usr/lib/gcc/x86_64-pc-linux-gnu/8.2.0/include",
            "-I./arch/x86/include",
            "-I./arch/x86/include/generated",
            "-I./include",
            "-I./arch/x86/include/uapi",
            "-I./arch/x86/include/generated/uapi",
            "-I./include/uapi",
            "-I./include/generated/uapi",
            "-include",
            "./include/linux/kconfig.h",
            "-include",
            "./include/linux/compiler_types.h",
            "-D__KERNEL__",
            "-DCONFIG_CC_STACKPROTECTOR",
            "-Wall",
            "-Wundef",
            "-Wstrict-prototypes",
            "-Wno-trigraphs",
            "-fno-strict-aliasing",
            "-fno-common",
            "-fshort-wchar",
            "-Werror-implicit-function-declaration",
            "-Wno-format-security",
            "-std=gnu89",
            "-fno-PIE",
            "-DCC_HAVE_ASM_GOTO",
            "-mno-sse",
            "-mno-mmx",
            "-mno-sse2",
            "-mno-3dnow",
            "-mno-avx",
            "-m64",
            "-falign-jumps=1",
            "-falign-loops=1",
            "-mno-80387",
            "-mno-fp-ret-in-387",
            "-mpreferred-stack-boundary=3",
            "-mskip-rax-setup",
            "-mtune=generic",
            "-mno-red-zone",
            "-mcmodel=kernel",
            "-funit-at-a-time",
            "-DCONFIG_AS_CFI=1",
            "-DCONFIG_AS_CFI_SIGNAL_FRAME=1",
            "-DCONFIG_AS_CFI_SECTIONS=1",
            "-DCONFIG_AS_FXSAVEQ=1",
            "-DCONFIG_AS_SSSE3=1",
            "-DCONFIG_AS_CRC32=1",
            "-DCONFIG_AS_AVX=1",
            "-DCONFIG_AS_AVX2=1",
            "-DCONFIG_AS_AVX512=1",
            "-DCONFIG_AS_SHA1_NI=1",
            "-DCONFIG_AS_SHA256_NI=1",
            "-pipe",
            "-Wno-sign-compare",
            "-fno-asynchronous-unwind-tables",
            "-mindirect-branch=thunk-extern",
            "-mindirect-branch-register",
            "-DRETPOLINE",
            "-fno-delete-null-pointer-checks",
            "-Wno-frame-address",
            "-Wno-format-truncation",
            "-Wno-format-overflow",
            "-Wno-int-in-bool-context",
            "-O2",
            "--param=allow-store-data-races=0",
            "-Wframe-larger-than=2048",
            "-fstack-protector-strong",
            "-Wno-unused-but-set-variable",
            "-Wno-unused-const-variable",
            "-fno-var-tracking-assignments",
            "-pg",
            "-mfentry",
            "-DCC_USING_FENTRY",
            "-Wdeclaration-after-statement",
            "-Wno-pointer-sign",
            "-fno-strict-overflow",
            "-fno-merge-all-constants",
            "-fmerge-constants",
            "-fno-stack-check",
            "-fconserve-stack",
            "-Werror=implicit-int",
            "-Werror=strict-prototypes",
            "-Werror=date-time",
            "-Werror=incompatible-pointer-types",
            "-Werror=designated-init",
            "-fmacro-prefix-map=./=",
            "-Wno-packed-not-aligned",
            "-DKBUILD_BASENAME=\"main.mod\"",
            "-DKBUILD_MODNAME=\"main\"",
            "-DMODULE",
            "-o",
            "/home/cocoa/bullshit/main.mod.o",
            "../../../../../home/cocoa/bullshit/main.mod.c"
        ],
        "directory": "/usr/lib/modules/4.17.14-arch1-1-ARCH/build",
        "file": "../../../../../home/cocoa/bullshit/main.mod.c"
    },
    {
        "arguments": [
            "gcc",
            "-c",
            "-Wp,-MD,/home/cocoa/bullshit/.main.o.d",
            "-nostdinc",
            "-isystem",
            "/usr/lib/gcc/x86_64-pc-linux-gnu/8.2.0/include",
            "-I./arch/x86/include",
            "-I./arch/x86/include/generated",
            "-I./include",
            "-I./arch/x86/include/uapi",
            "-I./arch/x86/include/generated/uapi",
            "-I./include/uapi",
            "-I./include/generated/uapi",
            "-include",
            "./include/linux/kconfig.h",
            "-include",
            "./include/linux/compiler_types.h",
            "-D__KERNEL__",
            "-DCONFIG_CC_STACKPROTECTOR",
            "-Wall",
            "-Wundef",
            "-Wstrict-prototypes",
            "-Wno-trigraphs",
            "-fno-strict-aliasing",
            "-fno-common",
            "-fshort-wchar",
            "-Werror-implicit-function-declaration",
            "-Wno-format-security",
            "-std=gnu89",
            "-fno-PIE",
            "-DCC_HAVE_ASM_GOTO",
            "-mno-sse",
            "-mno-mmx",
            "-mno-sse2",
            "-mno-3dnow",
            "-mno-avx",
            "-m64",
            "-falign-jumps=1",
            "-falign-loops=1",
            "-mno-80387",
            "-mno-fp-ret-in-387",
            "-mpreferred-stack-boundary=3",
            "-mskip-rax-setup",
            "-mtune=generic",
            "-mno-red-zone",
            "-mcmodel=kernel",
            "-funit-at-a-time",
            "-DCONFIG_AS_CFI=1",
            "-DCONFIG_AS_CFI_SIGNAL_FRAME=1",
            "-DCONFIG_AS_CFI_SECTIONS=1",
            "-DCONFIG_AS_FXSAVEQ=1",
            "-DCONFIG_AS_SSSE3=1",
            "-DCONFIG_AS_CRC32=1",
            "-DCONFIG_AS_AVX=1",
            "-DCONFIG_AS_AVX2=1",
            "-DCONFIG_AS_AVX512=1",
            "-DCONFIG_AS_SHA1_NI=1",
            "-DCONFIG_AS_SHA256_NI=1",
            "-pipe",
            "-Wno-sign-compare",
            "-fno-asynchronous-unwind-tables",
            "-mindirect-branch=thunk-extern",
            "-mindirect-branch-register",
            "-DRETPOLINE",
            "-fno-delete-null-pointer-checks",
            "-Wno-frame-address",
            "-Wno-format-truncation",
            "-Wno-format-overflow",
            "-Wno-int-in-bool-context",
            "-O2",
            "--param=allow-store-data-races=0",
            "-Wframe-larger-than=2048",
            "-fstack-protector-strong",
            "-Wno-unused-but-set-variable",
            "-Wno-unused-const-variable",
            "-fno-var-tracking-assignments",
            "-pg",
            "-mfentry",
            "-DCC_USING_FENTRY",
            "-Wdeclaration-after-statement",
            "-Wno-pointer-sign",
            "-fno-strict-overflow",
            "-fno-merge-all-constants",
            "-fmerge-constants",
            "-fno-stack-check",
            "-fconserve-stack",
            "-Werror=implicit-int",
            "-Werror=strict-prototypes",
            "-Werror=date-time",
            "-Werror=incompatible-pointer-types",
            "-Werror=designated-init",
            "-fmacro-prefix-map=./=",
            "-Wno-packed-not-aligned",
            "-DMODULE",
            "-DKBUILD_BASENAME=\"main\"",
            "-DKBUILD_MODNAME=\"main\"",
            "-o",
            "/home/cocoa/bullshit/.tmp_main.o",
            "../../../../../home/cocoa/bullshit/main.c"
        ],
        "directory": "/usr/lib/modules/4.17.14-arch1-1-ARCH/build",
        "file": "../../../../../home/cocoa/bullshit/main.c"
    }
]