[
    {
        "arguments": [
            "g++",
            "-c",
            "-o",
            "nfilter",
            "nfilter.cpp"
        ],
        "directory": "/home/cocoa/bullshit/src/userspace_tools",
        "file": "nfilter.cpp"
    }
]