\relax 
\providecommand\hyper@newdestlabel[2]{}
\providecommand\HyperFirstAtBeginDocument{\AtBeginDocument}
\HyperFirstAtBeginDocument{\ifx\hyper@anchor\@undefined
\global\let\oldcontentsline\contentsline
\gdef\contentsline#1#2#3#4{\oldcontentsline{#1}{#2}{#3}}
\global\let\oldnewlabel\newlabel
\gdef\newlabel#1#2{\newlabelxx{#1}#2}
\gdef\newlabelxx#1#2#3#4#5#6{\oldnewlabel{#1}{{#2}{#3}}}
\AtEndDocument{\ifx\hyper@anchor\@undefined
\let\contentsline\oldcontentsline
\let\newlabel\oldnewlabel
\fi}
\fi}
\global\let\hyper@last\relax 
\gdef\HyperFirstAtBeginDocument#1{#1}
\providecommand*\HyPL@Entry[1]{}
\HyPL@Entry{0<</S/D>>}
\HyPL@Entry{1<</S/D>>}
\@writefile{toc}{\contentsline {section}{\numberline {1}The Kernel Module}{3}{section.1}}
\@writefile{toc}{\contentsline {subsection}{\numberline {1.1}\mintinline {text}{module_init} and \mintinline {text}{module_exit}}{3}{subsection.1.1}}
\@writefile{toc}{\contentsline {subsection}{\numberline {1.2}The Character Device}{6}{subsection.1.2}}
\@writefile{toc}{\contentsline {subsection}{\numberline {1.3}The netfilter hook}{8}{subsection.1.3}}
\@writefile{toc}{\contentsline {section}{\numberline {2}Userspace Tools: \mintinline {text}{nfilter} and \mintinline {text}{nflogs}}{9}{section.2}}
\@writefile{toc}{\contentsline {subsection}{\numberline {2.1}\mintinline {text}{nfilter}}{9}{subsection.2.1}}
\@writefile{toc}{\contentsline {subsection}{\numberline {2.2}\mintinline {text}{nflogs}}{11}{subsection.2.2}}
\gdef\minted@oldcachelist{,
  default-pyg-prefix.pygstyle,
  default.pygstyle,
  0964919F8327E38CB59A40B715F5505DD4DE369533403E06D8B541A3822F6B7B.pygtex,
  B771C1B1DAC8DBCAD932BC49EF0BB513D4DE369533403E06D8B541A3822F6B7B.pygtex,
  6C098054AC8593C26F780C4C6106BF1CD4DE369533403E06D8B541A3822F6B7B.pygtex,
  4B4C939F6723479D1AE8DB2C6FCF8E3ED4DE369533403E06D8B541A3822F6B7B.pygtex,
  6C098054AC8593C26F780C4C6106BF1CD4DE369533403E06D8B541A3822F6B7B.pygtex,
  4B4C939F6723479D1AE8DB2C6FCF8E3ED4DE369533403E06D8B541A3822F6B7B.pygtex,
  6C098054AC8593C26F780C4C6106BF1CD4DE369533403E06D8B541A3822F6B7B.pygtex,
  6C098054AC8593C26F780C4C6106BF1CD4DE369533403E06D8B541A3822F6B7B.pygtex,
  6C098054AC8593C26F780C4C6106BF1CD4DE369533403E06D8B541A3822F6B7B.pygtex,
  2215AD11CDA6291DBA09F37A4A201400D4DE369533403E06D8B541A3822F6B7B.pygtex,
  D9E44AB1A54EADAFAA7CEFF2BF6EDA6ED4DE369533403E06D8B541A3822F6B7B.pygtex,
  6C098054AC8593C26F780C4C6106BF1CD4DE369533403E06D8B541A3822F6B7B.pygtex,
  5A3FDA1D4FDA65DAF90FE2C85B2BA3F4D4DE369533403E06D8B541A3822F6B7B.pygtex,
  0964919F8327E38CB59A40B715F5505DD4DE369533403E06D8B541A3822F6B7B.pygtex,
  B771C1B1DAC8DBCAD932BC49EF0BB513D4DE369533403E06D8B541A3822F6B7B.pygtex,
  319C9AB34CED7A05607FDB4E041FA206D4DE369533403E06D8B541A3822F6B7B.pygtex,
  D1ED5415178B30C60FD00067E580122CF1802E1B681C93DD9AC405D44C34AB16.pygtex,
  8083619E4032388297A15F1396BB1203D4DE369533403E06D8B541A3822F6B7B.pygtex,
  37C54FF0A6A7CCA1143AB220B8FB9A31D4DE369533403E06D8B541A3822F6B7B.pygtex,
  3E5AD4044B6D6FE2D643C01DED0F956FD4DE369533403E06D8B541A3822F6B7B.pygtex,
  A5E54C37C2FDFDF3799109A7889A159DD4DE369533403E06D8B541A3822F6B7B.pygtex,
  86AB6445FF101E9EFA96DBDA6A5D8313D4DE369533403E06D8B541A3822F6B7B.pygtex,
  E78346C81F34BEB0005B3341380E8870D4DE369533403E06D8B541A3822F6B7B.pygtex,
  7841B8DE2C672DD47D8ECBB38397DE48C370005C503B2AFD8818A748E29E11FA.pygtex,
  AF4E9FFD758E807EFFAAB44A64C8D3CBF1802E1B681C93DD9AC405D44C34AB16.pygtex,
  F0F47044809FDAA024B0807B0438650DD4DE369533403E06D8B541A3822F6B7B.pygtex,
  E78346C81F34BEB0005B3341380E8870D4DE369533403E06D8B541A3822F6B7B.pygtex,
  1AA4822E2DDEBB30709E323277EA9413F1802E1B681C93DD9AC405D44C34AB16.pygtex,
  ED9827C49DBFAB49940FD2B05D613D87F1802E1B681C93DD9AC405D44C34AB16.pygtex,
  24E88E020AFC2BF30722AC248C1799B8D4DE369533403E06D8B541A3822F6B7B.pygtex,
  768150804DF9DA14620C161515B18046D4DE369533403E06D8B541A3822F6B7B.pygtex,
  64BFDC69C012AC22FEACDFEE27DC5121C370005C503B2AFD8818A748E29E11FA.pygtex,
  24E88E020AFC2BF30722AC248C1799B8D4DE369533403E06D8B541A3822F6B7B.pygtex,
  3C73E5B47B7924A8E54DD05296AAEB82F1802E1B681C93DD9AC405D44C34AB16.pygtex,
  FB7792B6596FD12502DD132C0ABA0568F1802E1B681C93DD9AC405D44C34AB16.pygtex,
  96547B0FA98DC826F5725ED8E6682881F1802E1B681C93DD9AC405D44C34AB16.pygtex,
  4238BDD0FBF1D6B65DC791E44D8B6ADEF1802E1B681C93DD9AC405D44C34AB16.pygtex,
  24E88E020AFC2BF30722AC248C1799B8D4DE369533403E06D8B541A3822F6B7B.pygtex,
  01B27D4916F495076992A94005BAC5D0D4DE369533403E06D8B541A3822F6B7B.pygtex,
  871D8A2A52673EA243E92C3D84D517F8F1802E1B681C93DD9AC405D44C34AB16.pygtex,
  319C9AB34CED7A05607FDB4E041FA206D4DE369533403E06D8B541A3822F6B7B.pygtex,
  21BF73C60E18CE041FCB743BDF4945E0F1802E1B681C93DD9AC405D44C34AB16.pygtex,
  6C098054AC8593C26F780C4C6106BF1CD4DE369533403E06D8B541A3822F6B7B.pygtex,
  4B4C939F6723479D1AE8DB2C6FCF8E3ED4DE369533403E06D8B541A3822F6B7B.pygtex,
  6C098054AC8593C26F780C4C6106BF1CD4DE369533403E06D8B541A3822F6B7B.pygtex,
  4B4C939F6723479D1AE8DB2C6FCF8E3ED4DE369533403E06D8B541A3822F6B7B.pygtex,
  6C098054AC8593C26F780C4C6106BF1CD4DE369533403E06D8B541A3822F6B7B.pygtex,
  654A4EEC2C9831411777B0AD047AFF1CF1802E1B681C93DD9AC405D44C34AB16.pygtex,
  8B90FB962C57B67D4055A9E61AD00980C370005C503B2AFD8818A748E29E11FA.pygtex,
  68DE52EEF52E557E986B5218CD7D12BAC370005C503B2AFD8818A748E29E11FA.pygtex,
  154812AEA0D04F6C39F0002C05A28D36C370005C503B2AFD8818A748E29E11FA.pygtex,
  030B186F7C23C743550A75DFE10B0233D4DE369533403E06D8B541A3822F6B7B.pygtex,
  24E88E020AFC2BF30722AC248C1799B8D4DE369533403E06D8B541A3822F6B7B.pygtex,
  4B4C939F6723479D1AE8DB2C6FCF8E3ED4DE369533403E06D8B541A3822F6B7B.pygtex,
  4B4C939F6723479D1AE8DB2C6FCF8E3ED4DE369533403E06D8B541A3822F6B7B.pygtex,
  9D9629B478A011B7995F58D5291CCD2CF1802E1B681C93DD9AC405D44C34AB16.pygtex}
\@writefile{toc}{\contentsline {section}{\numberline {3}Scope for Improvement}{12}{section.3}}
\@writefile{toc}{\contentsline {section}{\numberline {4}References}{12}{section.4}}
