\contentsline {section}{\numberline {1}The Kernel Module}{3}{section.1}
\contentsline {subsection}{\numberline {1.1}\mintinline {text}{module_init} and \mintinline {text}{module_exit}}{3}{subsection.1.1}
\contentsline {subsection}{\numberline {1.2}The Character Device}{6}{subsection.1.2}
\contentsline {subsection}{\numberline {1.3}The netfilter hook}{8}{subsection.1.3}
\contentsline {section}{\numberline {2}Userspace Tools: \mintinline {text}{nfilter} and \mintinline {text}{nflogs}}{9}{section.2}
\contentsline {subsection}{\numberline {2.1}\mintinline {text}{nfilter}}{9}{subsection.2.1}
\contentsline {subsection}{\numberline {2.2}\mintinline {text}{nflogs}}{11}{subsection.2.2}
\contentsline {section}{\numberline {3}Scope for Improvement}{12}{section.3}
\contentsline {section}{\numberline {4}References}{12}{section.4}
